<svg width="240px" height="64px" viewBox="0 0 240 64" xmlns="http://www.w3.org/2000/svg" xmlns:xlink="http://www.w3.org/1999/xlink">
  <defs>
    <path id="a" d="M0 .38h240v42.8H0z"/>
    <path id="c" d="M.86.43h7.21V12H.86z"/>
    <path id="e" d="M.9.43h11.55V12H.9z"/>
    <path id="g" d="M0 .43h7.21V12H.01z"/>
  </defs>
  <g fill="none" fill-rule="evenodd">
    <g transform="translate(0 -.38)">
      <mask id="b" fill="#fff">
        <use xlink:href="#a"/>
      </mask>
      <path d="M32.28 32c-.35-.36-1-.42-1.48 0a14.3 14.3 0 0 1-9.1 3.4c-7.62 0-13.32-6.3-13.32-13.75 0-7.49 5.65-13.84 13.26-13.84 3.34 0 6.66 1.3 9.16 3.5.48.48 1.07.48 1.48 0l3.63-3.74a1.1 1.1 0 0 0-.06-1.67A20.11 20.11 0 0 0 21.46.38 21.41 21.41 0 0 0 0 21.83a21.31 21.31 0 0 0 21.46 21.35c5.3 0 10.4-1.85 14.45-5.77.42-.41.53-1.19.06-1.6L32.28 32zm34.4-18.13A5.91 5.91 0 0 0 60.8 8.1h-9.7v11.83h9.7a6.05 6.05 0 0 0 5.88-6.06zm-1.07 11.9l8.15 15.09c.42.77 0 1.72-1.01 1.72H66.5c-.53 0-.84-.3-.95-.53l-7.91-15.76h-6.6v15.17c0 .59-.54 1.12-1.13 1.12h-5.47c-.66 0-1.13-.53-1.13-1.12V2.1c0-.6.47-1.13 1.13-1.13h17c7.14 0 12.97 5.7 12.97 12.78 0 5.47-3.63 9.93-8.8 12.01zm63.27-7.8c-4.82-1.96-7.02-3.86-7.02-6.66 0-1.9 1.85-4.16 5.24-4.16 3.26 0 7.78 2.97 8.26 3.27.71.48 1.6 0 2.08-.71l2.26-3.4c.41-.59.23-1.6-.36-1.95A20.9 20.9 0 0 0 127.45.38c-9.45 0-13.38 6.12-13.38 11.41 0 7.01 5.6 10.58 11.19 12.84 4.99 2.02 7.54 4.1 7.54 7.13 0 2.56-2.31 4.58-5.4 4.58-3.87 0-8.68-3.5-8.98-3.69a1.38 1.38 0 0 0-2.02.42l-2.14 3.69c-.54.95-.24 1.25.3 1.79 1.19 1.12 5.58 4.63 13.07 4.63 8.39 0 13.68-5.65 13.68-11.77 0-7.67-6.67-11.12-12.43-13.45zM110.6.96h-6.13c-.47 0-.77.3-.95.53l-9.51 13.68L84.5 1.5c-.18-.24-.48-.53-.96-.53H77.5c-.95 0-1.43.94-.95 1.72L90.1 22.55v18.9c0 .6.48 1.13 1.14 1.13h5.46c.6 0 1.14-.53 1.14-1.12V22.49l13.73-19.8c.48-.78 0-1.72-.95-1.72zm62.56 6V2.1c0-.6-.47-1.13-1.13-1.13h-25.98c-.66 0-1.13.53-1.13 1.13v4.87c0 .6.47 1.13 1.13 1.13h9.1v33.36c0 .59.53 1.12 1.12 1.12h5.53c.6 0 1.13-.53 1.13-1.12V8.1h9.1c.66 0 1.13-.53 1.13-1.13zm23.5 21.4l-5.93-13.08h-.18l-5.83 13.09h11.95zm13.74 12.67c.36.77-.11 1.54-1 1.54h-5.18c-.89 0-1.3-.35-1.73-1.18l-2.91-6.43h-17.77l-2.92 6.43a1.8 1.8 0 0 1-1.72 1.18H172c-.89 0-1.36-.77-1-1.54l18.48-40.01c.19-.36.48-.65 1.02-.65h.59c.6 0 .83.3 1.01.65l18.31 40zM240 36.58v4.88c0 .59-.48 1.12-1.13 1.12h-21.76c-.65 0-1.13-.53-1.13-1.12V2.1c0-.6.48-1.13 1.13-1.13h5.47c.6 0 1.13.53 1.13 1.13v33.35h15.16c.65 0 1.13.54 1.13 1.13z" fill="#252A32" mask="url(#b)"/>
    </g>
    <path d="M155.16 34.57v6.5c0 .6.53 1.13 1.12 1.13h5.54c.6 0 1.12-.53 1.12-1.13V26.78l-7.78 7.79zM184.73 28l5.83-13.08h.17L196.68 28h-11.95zM192.1.65c-.18-.35-.42-.65-1-.65h-.6c-.53 0-.83.3-1.02.65L171 40.66c-.36.78.12 1.54 1 1.54h5.18c.96 0 1.5-.58 1.72-1.17l2.92-6.43h9.23l11.39-11.39L192.1.65zm30.48-.06h-5.47c-.65 0-1.13.53-1.13 1.13v7.95l7.73-7.73v-.22c0-.6-.53-1.13-1.13-1.13zM35.85 5.53C32.19 2.23 28.28.37 23.1.05L.06 23.1c.7 9.25 7.2 16.76 15.9 19l7.15-7.15c-.46.05-.93.08-1.41.08-7.61 0-13.31-6.3-13.31-13.74 0-7.5 5.63-13.84 13.25-13.84 3.34 0 6.65 1.3 9.15 3.5.5.47 1.07.47 1.49 0l3.63-3.75a1.1 1.1 0 0 0-.06-1.66zm8.6-4.94c-.66 0-1.12.53-1.12 1.13v13.01L57.47.6H44.46zm194.42 34.49H223.7v-3.91l-7.73 7.73v2.17c0 .6.48 1.13 1.13 1.13h21.76c.65 0 1.13-.53 1.13-1.13v-4.86c0-.6-.48-1.13-1.13-1.13z" fill="#00585A"/>
    <g transform="translate(67 51.62)">
      <mask id="d" fill="#fff">
        <use xlink:href="#c"/>
      </mask>
      <path d="M.94 10.22c.14-.21.27-.45.42-.66.14-.21.36-.27.54-.13.1.08 1.34 1.1 2.57 1.1 1.1 0 1.82-.67 1.82-1.48 0-.97-.84-1.58-2.43-2.24C2.22 6.12.94 5.27.94 3.41.94 2.15 1.9.43 4.46.43c1.6 0 2.8.84 2.97.95.13.08.25.3.1.55l-.4.6c-.13.22-.35.31-.57.17-.11-.07-1.24-.8-2.17-.8-1.35 0-1.81.85-1.81 1.44 0 .92.7 1.48 2.04 2.03 1.86.75 3.45 1.64 3.45 3.6 0 1.66-1.5 3.03-3.58 3.03a5.19 5.19 0 0 1-3.46-1.27c-.14-.13-.25-.24-.1-.51" fill="#252A32" mask="url(#d)"/>
    </g>
    <path d="M77.14 52.6c0-.2.16-.38.39-.38h.93c.2 0 .39.17.39.38v4.46l4.53-4.68a.42.42 0 0 1 .3-.16h1.2c.3 0 .46.33.23.58l-4.64 4.72 4.92 5.41c.13.17.05.54-.3.54h-1.28c-.16 0-.25-.07-.29-.12l-4.67-5.27v5a.4.4 0 0 1-.39.39h-.93a.38.38 0 0 1-.39-.39V52.6zM87.71 52.52c0-.16.15-.3.31-.3h1.06c.16 0 .3.14.3.3v10.64c0 .16-.14.3-.3.3h-1.06a.32.32 0 0 1-.3-.3V52.52zM96.84 52.52c0-.16.15-.3.3-.3h1.07c.17 0 .3.14.3.3V57h5.88v-4.48c0-.16.13-.3.3-.3h1.07c.16 0 .3.14.3.3v10.64c0 .16-.14.3-.3.3h-1.06a.3.3 0 0 1-.3-.3v-4.64H98.5v4.64c0 .16-.13.3-.3.3h-1.06a.32.32 0 0 1-.3-.3V52.52z" fill="#252A32"/>
    <g transform="translate(107 51.62)">
      <mask id="f" fill="#fff">
        <use xlink:href="#e"/>
      </mask>
      <path d="M6.66 10.4a4.18 4.18 0 1 0 0-8.36 4.17 4.17 0 1 0 0 8.35m0-9.96a5.77 5.77 0 1 1 0 11.57A5.73 5.73 0 0 1 .9 6.23C.9 3.02 3.45.43 6.66.43" fill="#252A32" mask="url(#f)"/>
    </g>
    <path d="M121.58 52.52c0-.16.13-.3.3-.3h1.07c.16 0 .3.14.3.3v9.45h4.35c.18 0 .31.15.31.3v.89c0 .16-.13.3-.3.3h-5.72a.3.3 0 0 1-.31-.3V52.52zM130.09 52.52c0-.16.14-.3.3-.3h1.06c.16 0 .3.14.3.3v10.64c0 .16-.14.3-.3.3h-1.06a.32.32 0 0 1-.3-.3V52.52zM138.73 61.94a3.97 3.97 0 0 0 4.08-4.11 3.95 3.95 0 0 0-4.08-4.08h-2.12v8.19h2.12zm-3.76-9.42c0-.16.13-.3.29-.3h3.7c3.1 0 5.63 2.52 5.63 5.6a5.65 5.65 0 0 1-5.63 5.65h-3.7c-.16 0-.3-.15-.3-.3V52.51zM152.42 59.64l-1.97-4.4h-.09l-1.96 4.4h4.02zm-7.28 3.4l4.93-10.8c.05-.1.2-.18.28-.18h.16c.08 0 .22.08.27.18l4.9 10.8c.1.22-.03.43-.27.43h-1.01c-.2 0-.31-.1-.37-.25l-1-2.2h-5.25l-.98 2.2a.4.4 0 0 1-.37.25h-1.01c-.25 0-.38-.21-.28-.42zM158.6 58.05l-3.75-5.36c-.13-.21 0-.47.26-.47h1.19c.13 0 .2.08.26.14l2.9 4.1 2.91-4.1c.05-.06.15-.14.26-.14h1.2c.26 0 .39.26.26.47l-3.8 5.34v5.13c0 .16-.15.3-.31.3h-1.06a.3.3 0 0 1-.31-.3v-5.11z" fill="#252A32"/>
    <g transform="translate(165 51.62)">
      <mask id="h" fill="#fff">
        <use xlink:href="#g"/>
      </mask>
      <path d="M.08 10.22c.15-.21.28-.45.42-.66.15-.21.37-.27.55-.13.1.08 1.33 1.1 2.57 1.1 1.1 0 1.82-.67 1.82-1.48 0-.97-.84-1.58-2.43-2.24C1.37 6.12.08 5.27.08 3.41.08 2.15 1.05.43 3.6.43c1.6 0 2.81.84 2.97.95.13.08.26.3.1.55l-.4.6c-.13.22-.34.31-.56.17-.12-.07-1.24-.8-2.17-.8-1.35 0-1.81.85-1.81 1.44 0 .92.7 1.48 2.03 2.03 1.86.75 3.45 1.64 3.45 3.6 0 1.66-1.49 3.03-3.58 3.03a5.17 5.17 0 0 1-3.45-1.27c-.14-.13-.26-.24-.1-.51" fill="#252A32" mask="url(#h)"/>
    </g>
    <path d="M4.11 55.98c-1.17 0-2.13.96-2.13 2.12 0 1.17.96 2.13 2.13 2.13 2.26-.03 8.08-.32 15.03-.51l-3.34-3.34c-5.43-.18-9.8-.37-11.69-.4M46.25 56.49c-4.93.08-10.7.16-15.66.16-2.7 0-5.4-.04-8.02-.09l3.03 3.03c1.64-.03 3.3-.04 4.98-.04 6.17 0 13.6.12 19.11.23l-3.44-3.3zM18.45 56.47l3.19 3.19.6-.01-3.17-3.17-.62-.01" fill="#252A32"/>
    <path d="M46.25 56.49c6.38-.12 11.36-.25 11.36-.25.82 0 1.48.84 1.48 1.86 0 1.03-.66 1.87-1.48 1.87 0 0-3.28-.09-7.91-.18l-3.45-3.3z" fill="#00585A"/>
    <path d="M56.72 57.53a.57.57 0 0 1 0 1.15.57.57 0 1 1 0-1.15" fill="#00CE9B"/>
    <path d="M19.08 56.48l3.16 3.17c1.1-.03 2.23-.05 3.36-.06l-3.03-3.03-3.5-.08M15.8 56.38l3.34 3.34 2.5-.06-3.2-3.2-2.64-.08" fill="#00585A"/>
    <path d="M236.05 60.23c1.18 0 2.13-.96 2.13-2.12 0-1.17-.95-2.13-2.13-2.13-2.26.03-8.08.32-15.02.51l3.34 3.34c5.43.18 9.8.37 11.68.4M193.92 59.73c4.93-.1 10.7-.17 15.66-.17 2.7 0 5.4.04 8.01.09l-3.02-3.03c-1.64.03-3.31.04-4.98.04-6.17 0-13.6-.12-19.12-.23l3.45 3.3zM221.72 59.75l-3.2-3.2-.6.01 3.17 3.17c.2.02.42.02.63.02" fill="#252A32"/>
    <path d="M193.92 59.73c-6.38.11-11.37.24-11.37.24-.82 0-1.48-.83-1.48-1.86 0-1.03.66-1.86 1.48-1.86l7.92.18 3.45 3.3z" fill="#00585A"/>
    <path d="M183.44 58.68a.57.57 0 0 1 0-1.15c.32 0 .57.26.57.58 0 .31-.25.57-.57.57" fill="#00CE9B"/>
    <path d="M221.1 59.73l-3.18-3.17c-1.1.03-2.22.05-3.35.06l3.02 3.03 3.5.08M224.37 59.83l-3.34-3.34-2.5.06 3.19 3.2 2.65.08" fill="#00585A"/>
  </g>
</svg>
