<?xml version="1.0" encoding="utf-8"?>
<svg width="90px" height="24px" viewBox="43 0 85 24" version="1.1" xmlns="http://www.w3.org/2000/svg">
  <title>Artboard</title>
  <desc>Created with Sketch.</desc>
  <g id="Artboard" stroke="none" stroke-width="1" fill="none" fill-rule="evenodd">
    <g id="Group-3">
      <g id="Verified-by-visa-logo" transform="translate(84.000000, 5.000000)" fill="#1A1F71">
        <g id="Group">
          <path d="M13.1226466,0.357446809 L9.44830554,9.32340426 L7.9662184,1.69787234 C7.7809575,0.834042553 7.10166756,0.357446809 6.32974718,0.357446809 L0.308768155,0.357446809 L0.216137708,0.744680851 C1.45121033,1.01276596 2.84066703,1.42978723 3.70521786,1.87659574 C4.23012372,2.14468085 4.3845078,2.38297872 4.53889188,3.03829787 L7.34868209,13.5531915 L11.1156536,13.5531915 L16.8587413,0.357446809 L13.1226466,0.357446809 Z" id="Path"/>
          <polygon id="Path" points="18.3717052 0.357446809 15.4384077 13.5531915 18.9892415 13.5531915 21.8916622 0.357446809"/>
          <path d="M26.5540613,4.0212766 C26.5540613,3.54468085 27.0480904,3.03829787 28.0670253,2.91914894 C28.5610543,2.85957447 29.9813878,2.8 31.5561054,3.51489362 L32.1736417,0.714893617 C31.3090909,0.417021277 30.2284024,0.119148936 28.8698225,0.119148936 C25.3807423,0.119148936 22.9105971,1.90638298 22.8797203,4.49787234 C22.8488435,6.40425532 24.6396988,7.44680851 25.9674018,8.07234043 C27.3568585,8.72765957 27.8200108,9.11489362 27.7891339,9.7106383 C27.7891339,10.6042553 26.6775686,10.9914894 25.6895105,10.9914894 C23.8986552,11.0212766 22.8797203,10.5148936 22.0460463,10.1574468 L21.3976331,13.0468085 C22.2313072,13.4042553 23.7442711,13.7319149 25.3189887,13.7319149 C29.0242066,13.7319149 31.463475,11.9744681 31.463475,9.20425532 C31.5252286,5.7787234 26.5231845,5.57021277 26.5540613,4.0212766" id="Path"/>
          <path d="M36.7742873,8.87659574 L38.657773,3.93191489 L39.7075847,8.87659574 L36.7742873,8.87659574 Z M38.1328671,0.357446809 C37.4535772,0.357446809 36.8669177,0.744680851 36.6199032,1.3106383 L31.3090909,13.5234043 L35.0143088,13.5234043 L35.7553523,11.5574468 L40.2942442,11.5574468 L40.7265196,13.5234043 L43.9994621,13.5234043 L41.1587951,0.327659574 L38.1328671,0.327659574 L38.1328671,0.357446809 Z" id="Shape" fill-rule="nonzero"/>
        </g>
      </g>
      <g id="Group-2" transform="translate(142.000000, 2.000000)">
        <g id="01-Atoms/Logos/TUI/Logo-without-Claim-Copy" transform="translate(6.000000, 3.000000)" fill="#D40E14" fill-rule="nonzero"/>
      </g>
      <g id="Mastercard-logo" transform="translate(43.000000, 0.000000)">
        <g id="Group" transform="translate(15.500000, 22.000000) scale(-1, 1) rotate(-180.000000) translate(-15.500000, -22.000000) translate(1.000000, 20.000000)" fill="#231F20" fill-rule="nonzero">
          <path d="M28.4081633,0.571428571 L28.4081633,0.512571429 L28.4643878,0.512571429 C28.4768163,0.512571429 28.4874694,0.515428571 28.4951633,0.52 C28.5022653,0.524571429 28.5064082,0.532571429 28.5064082,0.542285714 C28.5064082,0.552 28.5022653,0.559428571 28.4951633,0.564 C28.4874694,0.569142857 28.4768163,0.571428571 28.4643878,0.571428571 L28.4081633,0.571428571 Z M28.4649796,0.612571429 C28.4939796,0.612571429 28.5164694,0.606285714 28.532449,0.593714286 C28.5484286,0.581142857 28.5561224,0.564 28.5561224,0.542285714 C28.5561224,0.524 28.5502041,0.509142857 28.5371837,0.497142857 C28.5247551,0.485714286 28.507,0.478285714 28.4833265,0.475428571 L28.557898,0.392571429 L28.499898,0.392571429 L28.4306531,0.474857143 L28.4081633,0.474857143 L28.4081633,0.392571429 L28.3596327,0.392571429 L28.3596327,0.612571429 L28.4649796,0.612571429 Z M28.4501837,0.316571429 C28.4768163,0.316571429 28.5016735,0.321714286 28.5241633,0.331428571 C28.5472449,0.341142857 28.5673673,0.354285714 28.5845306,0.370857143 C28.6016939,0.387428571 28.6153061,0.406857143 28.6253673,0.429714286 C28.6348367,0.452 28.6401633,0.476 28.6401633,0.501714286 C28.6401633,0.527428571 28.6348367,0.551428571 28.6253673,0.573714286 C28.6153061,0.596 28.6016939,0.616 28.5845306,0.632571429 C28.5673673,0.649142857 28.5472449,0.662285714 28.5241633,0.672 C28.5016735,0.681142857 28.4768163,0.685714286 28.4501837,0.685714286 C28.423551,0.685714286 28.398102,0.681142857 28.3750204,0.672 C28.3513469,0.662285714 28.3306327,0.649142857 28.3134694,0.632571429 C28.2963061,0.616 28.2826939,0.596 28.2732245,0.573714286 C28.2631633,0.551428571 28.2584286,0.527428571 28.2584286,0.501714286 C28.2584286,0.476 28.2631633,0.452 28.2732245,0.429714286 C28.2826939,0.406857143 28.2963061,0.387428571 28.3134694,0.370857143 C28.3306327,0.354285714 28.3513469,0.341142857 28.3750204,0.331428571 C28.398102,0.321714286 28.423551,0.316571429 28.4501837,0.316571429 Z M28.4501837,0.738857143 C28.485102,0.738857143 28.5170612,0.732571429 28.5478367,0.72 C28.5780204,0.708 28.6040612,0.690857143 28.6271429,0.669142857 C28.6496327,0.648 28.6673878,0.622857143 28.6804082,0.593714286 C28.6934286,0.565142857 28.6999388,0.534285714 28.6999388,0.501714286 C28.6999388,0.469142857 28.6934286,0.438285714 28.6804082,0.409714286 C28.6673878,0.381142857 28.6496327,0.356 28.6271429,0.334285714 C28.6040612,0.313142857 28.5780204,0.296 28.5478367,0.283428571 C28.5170612,0.270857143 28.485102,0.264571429 28.4501837,0.264571429 C28.4146735,0.264571429 28.3821224,0.270857143 28.3513469,0.283428571 C28.3205714,0.296 28.2939388,0.313142857 28.271449,0.334285714 C28.2489592,0.356 28.2312041,0.381142857 28.2181837,0.409714286 C28.2051633,0.438285714 28.1986531,0.469142857 28.1986531,0.501714286 C28.1986531,0.534285714 28.2051633,0.565142857 28.2181837,0.593714286 C28.2312041,0.622857143 28.2489592,0.648 28.271449,0.669142857 C28.2939388,0.690857143 28.3205714,0.708 28.3513469,0.72 C28.3821224,0.732571429 28.4146735,0.738857143 28.4501837,0.738857143 Z M5.39163265,1.58628571 C5.39163265,2.00571429 5.67630612,2.35028571 6.1414898,2.35028571 C6.58595918,2.35028571 6.88602041,2.02057143 6.88602041,1.58628571 C6.88602041,1.152 6.58595918,0.822285714 6.1414898,0.822285714 C5.67630612,0.822285714 5.39163265,1.16685714 5.39163265,1.58628571 Z M7.39263265,1.58628571 L7.39263265,2.77942857 L6.8552449,2.77942857 L6.8552449,2.48971429 C6.68479592,2.70457143 6.42616327,2.83942857 6.07461224,2.83942857 C5.38157143,2.83942857 4.83826531,2.31485714 4.83826531,1.58628571 C4.83826531,0.857142857 5.38157143,0.333142857 6.07461224,0.333142857 C6.42616327,0.333142857 6.68479592,0.468 6.8552449,0.682857143 L6.8552449,0.393142857 L7.39263265,0.393142857 L7.39263265,1.58628571 Z M25.552551,1.58628571 C25.552551,2.00571429 25.8372245,2.35028571 26.3024082,2.35028571 C26.7474694,2.35028571 27.0469388,2.02057143 27.0469388,1.58628571 C27.0469388,1.152 26.7474694,0.822285714 26.3024082,0.822285714 C25.8372245,0.822285714 25.552551,1.16685714 25.552551,1.58628571 Z M27.5541429,1.58628571 L27.5541429,3.73771429 L27.0161633,3.73771429 L27.0161633,2.48971429 C26.8457143,2.70457143 26.5870816,2.83942857 26.2355306,2.83942857 C25.5424898,2.83942857 24.9991837,2.31485714 24.9991837,1.58628571 C24.9991837,0.857142857 25.5424898,0.333142857 26.2355306,0.333142857 C26.5870816,0.333142857 26.8457143,0.468 27.0161633,0.682857143 L27.0161633,0.393142857 L27.5541429,0.393142857 L27.5541429,1.58628571 Z M14.0632245,2.37485714 C14.409449,2.37485714 14.6319796,2.16514286 14.6887959,1.796 L13.4062857,1.796 C13.4636939,2.14057143 13.6803061,2.37485714 14.0632245,2.37485714 Z M14.0738776,2.83942857 C13.3494694,2.83942857 12.8428571,2.33028571 12.8428571,1.58628571 C12.8428571,0.827428571 13.3701837,0.333142857 14.1099796,0.333142857 C14.4822449,0.333142857 14.8231429,0.422857143 15.1232041,0.667428571 L14.8598367,1.052 C14.6526939,0.892571429 14.3887347,0.802285714 14.1407551,0.802285714 C13.7945306,0.802285714 13.4790816,0.957142857 13.401551,1.38685714 L15.2368367,1.38685714 C15.2421633,1.45142857 15.2474898,1.51657143 15.2474898,1.58628571 C15.2421633,2.33028571 14.7663265,2.83942857 14.0738776,2.83942857 Z M20.5627755,1.58628571 C20.5627755,2.00571429 20.847449,2.35028571 21.3126327,2.35028571 C21.757102,2.35028571 22.0571633,2.02057143 22.0571633,1.58628571 C22.0571633,1.152 21.757102,0.822285714 21.3126327,0.822285714 C20.847449,0.822285714 20.5627755,1.16685714 20.5627755,1.58628571 Z M22.5637755,1.58628571 L22.5637755,2.77942857 L22.0263878,2.77942857 L22.0263878,2.48971429 C21.8553469,2.70457143 21.5973061,2.83942857 21.2457551,2.83942857 C20.5527143,2.83942857 20.0094082,2.31485714 20.0094082,1.58628571 C20.0094082,0.857142857 20.5527143,0.333142857 21.2457551,0.333142857 C21.5973061,0.333142857 21.8553469,0.468 22.0263878,0.682857143 L22.0263878,0.393142857 L22.5637755,0.393142857 L22.5637755,1.58628571 Z M17.5278367,1.58628571 C17.5278367,0.862285714 18.0498367,0.333142857 18.846449,0.333142857 C19.2187143,0.333142857 19.4666939,0.413142857 19.7353878,0.617714286 L19.4773469,1.03714286 C19.2755306,0.897142857 19.0636531,0.822285714 18.8304694,0.822285714 C18.4013878,0.827428571 18.0859388,1.12685714 18.0859388,1.58628571 C18.0859388,2.04571429 18.4013878,2.34514286 18.8304694,2.35028571 C19.0636531,2.35028571 19.2755306,2.27542857 19.4773469,2.13542857 L19.7353878,2.55485714 C19.4666939,2.75942857 19.2187143,2.83942857 18.846449,2.83942857 C18.0498367,2.83942857 17.5278367,2.31028571 17.5278367,1.58628571 Z M24.4564694,2.83942857 C24.1463469,2.83942857 23.9445306,2.69942857 23.8048571,2.48971429 L23.8048571,2.77942857 L23.2722041,2.77942857 L23.2722041,0.393142857 L23.8101837,0.393142857 L23.8101837,1.73085714 C23.8101837,2.12571429 23.9859592,2.34514286 24.3375102,2.34514286 C24.4464082,2.34514286 24.5600408,2.33028571 24.6736735,2.28514286 L24.8393878,2.77428571 C24.7204286,2.81942857 24.5653673,2.83942857 24.4564694,2.83942857 Z M10.0505714,2.58971429 C9.79193878,2.75428571 9.43565306,2.83942857 9.04267347,2.83942857 C8.4165102,2.83942857 8.01346939,2.54971429 8.01346939,2.07542857 C8.01346939,1.68628571 8.31353061,1.44628571 8.86630612,1.37142857 L9.12020408,1.33657143 C9.41493878,1.29657143 9.55402041,1.22171429 9.55402041,1.08685714 C9.55402041,0.902285714 9.35753061,0.797142857 8.99059184,0.797142857 C8.61832653,0.797142857 8.34963265,0.912 8.16853061,1.04685714 L7.91522449,0.642857143 C8.20995918,0.433142857 8.58222449,0.333142857 8.98526531,0.333142857 C9.69902041,0.333142857 10.1127143,0.657714286 10.1127143,1.112 C10.1127143,1.53142857 9.78720408,1.75085714 9.24922449,1.82571429 L8.99591837,1.86114286 C8.76332653,1.89085714 8.57689796,1.93542857 8.57689796,2.09542857 C8.57689796,2.27028571 8.75267347,2.37485714 9.04740816,2.37485714 C9.36285714,2.37485714 9.6682449,2.26 9.81797959,2.17028571 L10.0505714,2.58971429 Z M16.9845306,2.83942857 C16.6744082,2.83942857 16.4725918,2.69942857 16.3335102,2.48971429 L16.3335102,2.77942857 L15.8008571,2.77942857 L15.8008571,0.393142857 L16.3382449,0.393142857 L16.3382449,1.73085714 C16.3382449,2.12571429 16.5140204,2.34514286 16.8655714,2.34514286 C16.9744694,2.34514286 17.088102,2.33028571 17.2017347,2.28514286 L17.367449,2.77428571 C17.2484898,2.81942857 17.0934286,2.83942857 16.9845306,2.83942857 Z M12.3983878,2.77942857 L11.5195102,2.77942857 L11.5195102,3.50342857 L10.9762041,3.50342857 L10.9762041,2.77942857 L10.4749184,2.77942857 L10.4749184,2.30514286 L10.9762041,2.30514286 L10.9762041,1.21657143 C10.9762041,0.662857143 11.1987347,0.333142857 11.8343673,0.333142857 C12.067551,0.333142857 12.3362449,0.402857143 12.5066939,0.517714286 L12.3516327,0.962285714 C12.1912449,0.872571429 12.0154694,0.827428571 11.8757959,0.827428571 C11.607102,0.827428571 11.5195102,0.987428571 11.5195102,1.22685714 L11.5195102,2.30514286 L12.3983878,2.30514286 L12.3983878,2.77942857 Z M4.36302041,0.393142857 L4.36302041,1.89085714 C4.36302041,2.45485714 3.9907551,2.83428571 3.39063265,2.83942857 C3.07518367,2.84457143 2.74967347,2.74971429 2.52181633,2.41485714 C2.35136735,2.67942857 2.08267347,2.83942857 1.70508163,2.83942857 C1.44112245,2.83942857 1.18308163,2.76457143 0.981265306,2.48514286 L0.981265306,2.77942857 L0.443285714,2.77942857 L0.443285714,0.393142857 L0.986,0.393142857 L0.986,1.716 C0.986,2.13028571 1.22391837,2.35028571 1.59144898,2.35028571 C1.94832653,2.35028571 2.12883673,2.12571429 2.12883673,1.72114286 L2.12883673,0.393142857 L2.67214286,0.393142857 L2.67214286,1.716 C2.67214286,2.13028571 2.92012245,2.35028571 3.277,2.35028571 C3.64393878,2.35028571 3.81971429,2.12571429 3.81971429,1.72114286 L3.81971429,0.393142857 L4.36302041,0.393142857 Z" id="Shape"/>
        </g>
        <g id="Group" transform="translate(29.000000, 15.500000) scale(-1, 1) rotate(-180.000000) translate(-29.000000, -15.500000) translate(28.000000, 15.000000)" fill="#F79410" fill-rule="nonzero">
          <path d="M1.3375,-5.55111512e-17 L1.3375,0.61 L1.2175,0.61 L1.07863208,0.191 L0.940518868,0.61 L0.819764151,0.61 L0.819764151,-5.55111512e-17 L0.90504717,-5.55111512e-17 L0.90504717,0.46 L1.03485849,0.063 L1.12316038,0.063 L1.2529717,0.461 L1.2529717,-5.55111512e-17 L1.3375,-5.55111512e-17 Z M0.575990566,-1.11022302e-16 L0.575990566,0.506 L0.72995283,0.506 L0.72995283,0.609 L0.3375,0.609 L0.3375,0.506 L0.491462264,0.506 L0.491462264,-1.11022302e-16 L0.575990566,-1.11022302e-16 Z" id="Shape"/>
        </g>
        <polygon id="Path" fill="#FF5F00" points="19 17 11 17 11 2 19 2"/>
        <g id="Group" transform="translate(8.000000, 9.500000) scale(-1, 1) rotate(-180.000000) translate(-8.000000, -9.500000) " fill="#EB001B">
          <path d="M11.8518519,9.5 C11.8518519,12.4788438 13.2438519,15.1323125 15.4115556,16.8423125 C13.8263704,18.09275 11.8257778,18.8390937 9.65155556,18.8390937 C4.5042963,18.8390937 0.331851852,14.6579062 0.331851852,9.5 C0.331851852,4.34209375 4.5042963,0.16090625 9.65155556,0.16090625 C11.8257778,0.16090625 13.8263704,0.90725 15.4115556,2.1576875 C13.2438519,3.8676875 11.8518519,6.52115625 11.8518519,9.5" id="Path"/>
        </g>
        <g id="Group" transform="translate(22.500000, 9.500000) scale(-1, 1) rotate(-180.000000) translate(-22.500000, -9.500000) translate(15.000000, 0.000000)" fill="#F79E1B">
          <path d="M15,9.5 C15,4.34209375 10.9378846,0.16090625 5.92673077,0.16090625 C3.81,0.16090625 1.86230769,0.90725 0.318461538,2.1576875 C2.42942308,3.8676875 3.78461538,6.52115625 3.78461538,9.5 C3.78461538,12.4788438 2.42942308,15.1323125 0.318461538,16.8423125 C1.86230769,18.09275 3.81,18.8390937 5.92673077,18.8390937 C10.9378846,18.8390937 15,14.6579062 15,9.5" id="Path"/>
        </g>
      </g>
      <g id="Maestro_2016">
        <g id="Group" transform="translate(30.000000, 15.500000) scale(-1, 1) rotate(-180.000000) translate(-30.000000, -15.500000) translate(29.000000, 15.000000)" fill="#0099DF" fill-rule="nonzero"/>
        <g id="Group" transform="translate(8.000000, 9.500000) scale(-1, 1) rotate(-180.000000) translate(-8.000000, -9.500000) " fill="#EB001B"/>
        <g id="Group" transform="translate(23.000000, 9.500000) scale(-1, 1) rotate(-180.000000) translate(-23.000000, -9.500000) translate(15.000000, 0.000000)" fill="#0099DF"/>
        <g id="Group" transform="translate(15.500000, 21.500000) scale(-1, 1) rotate(-180.000000) translate(-15.500000, -21.500000) translate(5.000000, 19.000000)" fill="#231F20" fill-rule="nonzero"/>
        <g id="Group" transform="translate(27.000000, 23.000000) scale(-1, 1) rotate(-180.000000) translate(-27.000000, -23.000000) translate(26.000000, 22.000000)" fill="#231F20" fill-rule="nonzero"/>
      </g>
    </g>
  </g>
</svg>