29-Jun-2021 13:20:27.152 INFO [main] org.apache.catalina.core.ApplicationContext.log ContextListener: contextInitialized()
29-Jun-2021 13:20:27.152 INFO [main] org.apache.catalina.core.ApplicationContext.log SessionListener: contextInitialized()
29-Jun-2021 13:20:27.159 INFO [main] org.apache.catalina.core.ApplicationContext.log ContextListener: attributeAdded('StockTicker', 'async.Stockticker@2d6c53fc')
29-Jun-2021 13:20:27.170 SEVERE [main] org.apache.catalina.core.StandardContext.listenerStart Exception sending context initialized event to listener instance of class websocket.drawboard.DrawboardContextListener
	java.lang.AbstractMethodError
		at org.apache.catalina.core.StandardContext.listenerStart(StandardContext.java:3934)
		at org.apache.catalina.core.StandardContext.start(StandardContext.java:4429)
		at org.apache.catalina.core.ContainerBase.addChildInternal(ContainerBase.java:791)
		at org.apache.catalina.core.ContainerBase.addChild(ContainerBase.java:771)
		at org.apache.catalina.core.StandardHost.addChild(StandardHost.java:526)
		at org.apache.catalina.startup.HostConfig.deployDescriptor(HostConfig.java:630)
		at org.apache.catalina.startup.HostConfig.deployDescriptors(HostConfig.java:556)
		at org.apache.catalina.startup.HostConfig.deployApps(HostConfig.java:491)
		at org.apache.catalina.startup.HostConfig.start(HostConfig.java:1206)
		at org.apache.catalina.startup.HostConfig.lifecycleEvent(HostConfig.java:314)
		at org.apache.catalina.util.LifecycleSupport.fireLifecycleEvent(LifecycleSupport.java:119)
		at org.apache.catalina.core.ContainerBase.start(ContainerBase.java:1053)
		at org.apache.catalina.core.StandardHost.start(StandardHost.java:722)
		at org.apache.catalina.core.ContainerBase.start(ContainerBase.java:1045)
		at org.apache.catalina.core.StandardEngine.start(StandardEngine.java:443)
		at org.apache.catalina.core.StandardService.start(StandardService.java:516)
		at org.apache.catalina.core.StandardServer.start(StandardServer.java:710)
		at org.apache.catalina.startup.Catalina.start(Catalina.java:583)
		at sun.reflect.NativeMethodAccessorImpl.invoke0(Native Method)
		at sun.reflect.NativeMethodAccessorImpl.invoke(NativeMethodAccessorImpl.java:62)
		at sun.reflect.DelegatingMethodAccessorImpl.invoke(DelegatingMethodAccessorImpl.java:43)
		at java.lang.reflect.Method.invoke(Method.java:498)
		at org.apache.catalina.startup.Bootstrap.start(Bootstrap.java:342)
		at org.apache.catalina.startup.Bootstrap.main(Bootstrap.java:473)
29-Jun-2021 13:20:27.196 INFO [main] org.apache.catalina.core.ApplicationContext.log SessionListener: contextDestroyed()
29-Jun-2021 13:20:27.196 INFO [main] org.apache.catalina.core.ApplicationContext.log ContextListener: contextDestroyed()
29-Jun-2021 13:24:18.179 INFO [main] org.apache.catalina.core.ApplicationContext.log ContextListener: contextInitialized()
29-Jun-2021 13:24:18.179 INFO [main] org.apache.catalina.core.ApplicationContext.log SessionListener: contextInitialized()
29-Jun-2021 13:24:18.183 INFO [main] org.apache.catalina.core.ApplicationContext.log ContextListener: attributeAdded('StockTicker', 'async.Stockticker@82ea68c')
29-Jun-2021 13:24:18.184 SEVERE [main] org.apache.catalina.core.StandardContext.listenerStart Exception sending context initialized event to listener instance of class websocket.drawboard.DrawboardContextListener
	java.lang.AbstractMethodError
		at org.apache.catalina.core.StandardContext.listenerStart(StandardContext.java:3934)
		at org.apache.catalina.core.StandardContext.start(StandardContext.java:4429)
		at org.apache.catalina.core.ContainerBase.addChildInternal(ContainerBase.java:791)
		at org.apache.catalina.core.ContainerBase.addChild(ContainerBase.java:771)
		at org.apache.catalina.core.StandardHost.addChild(StandardHost.java:526)
		at org.apache.catalina.startup.HostConfig.deployDescriptor(HostConfig.java:630)
		at org.apache.catalina.startup.HostConfig.deployDescriptors(HostConfig.java:556)
		at org.apache.catalina.startup.HostConfig.deployApps(HostConfig.java:491)
		at org.apache.catalina.startup.HostConfig.start(HostConfig.java:1206)
		at org.apache.catalina.startup.HostConfig.lifecycleEvent(HostConfig.java:314)
		at org.apache.catalina.util.LifecycleSupport.fireLifecycleEvent(LifecycleSupport.java:119)
		at org.apache.catalina.core.ContainerBase.start(ContainerBase.java:1053)
		at org.apache.catalina.core.StandardHost.start(StandardHost.java:722)
		at org.apache.catalina.core.ContainerBase.start(ContainerBase.java:1045)
		at org.apache.catalina.core.StandardEngine.start(StandardEngine.java:443)
		at org.apache.catalina.core.StandardService.start(StandardService.java:516)
		at org.apache.catalina.core.StandardServer.start(StandardServer.java:710)
		at org.apache.catalina.startup.Catalina.start(Catalina.java:583)
		at sun.reflect.NativeMethodAccessorImpl.invoke0(Native Method)
		at sun.reflect.NativeMethodAccessorImpl.invoke(NativeMethodAccessorImpl.java:62)
		at sun.reflect.DelegatingMethodAccessorImpl.invoke(DelegatingMethodAccessorImpl.java:43)
		at java.lang.reflect.Method.invoke(Method.java:498)
		at org.apache.catalina.startup.Bootstrap.start(Bootstrap.java:342)
		at org.apache.catalina.startup.Bootstrap.main(Bootstrap.java:473)
29-Jun-2021 13:24:18.199 INFO [main] org.apache.catalina.core.ApplicationContext.log SessionListener: contextDestroyed()
29-Jun-2021 13:24:18.200 INFO [main] org.apache.catalina.core.ApplicationContext.log ContextListener: contextDestroyed()
